DS202: Final Project Report
…
Another thing I noticed is that 2020 includes a more diverse range of music with Latin songs by artists Bad Bunny and Karol G. This is also another hint that the music industry is only getting more competitive.

4. Analyze how song trends such a danceability, energy, loudness, etc changed throughout each year.

q4 <- main %>% 
        group_by(year) %>%
        summarise(danceability = mean(danceability),
                  acousticness = mean(acousticness),
                  energy = mean(energy),
                  valence = mean(valence),
                  liveness = mean(liveness))
q4

## # A tibble: 102 x 6
##     year danceability acousticness energy valence liveness
##  * <dbl>        <dbl>        <dbl>  <dbl>   <dbl>    <dbl>
##  1  1920        0.516        0.631  0.419   0.498    0.216
##  2  1921        0.432        0.862  0.241   0.378    0.205
##  3  1922        0.576        0.829  0.226   0.571    0.257
##  4  1923        0.577        0.957  0.262   0.625    0.227
##  5  1924        0.550        0.940  0.344   0.664    0.235
##  6  1925        0.575        0.963  0.278   0.621    0.237
##  7  1926        0.597        0.666  0.211   0.437    0.232
##  8  1927        0.656        0.916  0.268   0.670    0.177
##  9  1928        0.535        0.939  0.209   0.497    0.175
## 10  1929        0.648        0.601  0.242   0.637    0.236
## #  with 92 more rows
…
